\begin{tikzpicture}
    \begin{pgfonlayer}{nodelayer}
        \node [style=none, label={above right:{1}}] (0) at (-11, 0) {};
        \node [style=none, label={above:{2}}] (1) at (-8, 0) {};
        \node [style=none, label={above:{3}}] (2) at (-6, 0) {};
        \node [style=none, label={above:{4}}] (3) at (-4, 0) {};
        \node [style=none, label={above:{5}}] (4) at (-2, 0) {};
        \node [style=none, label={above:{6}}] (5) at (0, 0) {};
        \node [style=none, label={above:{7}}] (6) at (2, 0) {};
        \node [style={ct_ground}] (7) at (-11, -0.25) {};
        \node [style={ct_left}, label={below:{0}}] (8) at (-11, -2.5) {};
        \node [style=none] (9) at (-8, -2.5) {};
        \node [style=none] (10) at (-9.5, -1.75) {\tiny Solar radiation};
        \node [style=none] (11) at (-9.5, 1) {\tiny Convection};
        \node [style=none] (12) at (-7, 0.75) {\tiny  Conduction\\ \tiny asphalt};
        \node [style=none] (13) at (-3, 1) {\tiny Convection};
        \node [style=none] (14) at (-5, 0.75) {\tiny Conduction\\ \tiny concrete};
        \node [style=none] (15) at (-1, 0.75) {\tiny Conduction\\ \tiny air};
        \node [style=none] (16) at (1, 1) {\tiny Convection};
        \node [style=none] (17) at (-11, -1) {\tiny Solver Node};
        \node [style=none] (18) at (-1, 2.5) {};
        \node [style=none] (19) at (1, 2.5) {};
        \node [style=none] (20) at (0, 5) {\tiny Air infiltration};
        \node [style=none] (21) at (1, 4.5) {};
        \node [style=none] (22) at (-1, 4.5) {};
        \node [style=none] (23) at (0, 3) {\tiny Air exfiltration};
        \node [style=none] (24) at (12, 2.5) {};
        \node [style=none] (25) at (-11, 2.5) {};
        \node [style=none, label={above:{8}}] (26) at (4, 0) {};
        \node [style=none, label={above:{9}}] (27) at (6, 0) {};
        \node [style=none, label={above:{10}}] (28) at (8, 0) {};
        \node [style=none, label={above:{11}}] (29) at (10, 0) {};
        \node [style=none, label={below:{12}}] (30) at (12, 0) {};
        \node [style=none] (31) at (11, 1) {\tiny Convection};
        \node [style=none] (32) at (3, 0.75) {\tiny Conduction\\ \tiny wood};
        \node [style=none] (33) at (5, 0.75) {\tiny Conduction\\ \tiny glasswool};
        \node [style=none] (34) at (7, 0.75) {\tiny Conduction\\ \tiny firetcloth};
        \node [style=none] (35) at (9, 0.75) {\tiny Conduction\\ \tiny wood};
        \node [style=none] (36) at (-6, -2.5) {};
        \node [style=none] (37) at (4, -2.5) {};
        \node [style=none] (38) at (-1, -1.75) {\tiny Conduction\\ \tiny steel};
    \end{pgfonlayer}
    \begin{pgfonlayer}{edgelayer}
        \draw [style={ct_R}, {l_}={$\frac{1}{A h_c}$}, {o-*}] (0.center) to (1.center);
        \draw [style={ct_R}, {l_}={$\frac{\Delta x}{A k}$}, {*-*}] (1.center) to (2.center);
        \draw [style={ct_R}, {l_}={$\frac{\Delta x}{A k}$}, {*-*}] (2.center) to (3.center);
        \draw [style={ct_R}, {l_}={$\frac{\Delta x}{A k}$}, {*-*}] (3.center) to (4.center);
        \draw [style={ct_R}, {l_}={$\frac{\Delta x}{A k}$}, {*-*}] (4.center) to (5.center);
        \draw [style={ct_R}, {l_}={$\frac{1}{A h_c}$}, {*-*}] (5.center) to (6.center);
        \draw [style=simple] (0.center) to (7);
        \draw [style={ct_R}, {l_}={$\frac{\sigma_c}{\frac{1 - \epsilon_1}{\epsilon_1 A_1} + \frac{1}{F_{12} A_1} +\frac{1 - \epsilon_1}{\epsilon_1 A_1}}$}, o-, i>={$ $}] (8) to (9);
        \draw [style=simple] (9.center) to (1.center);
        \draw [style={ct_R}, {l_}={$\frac{1}{c_{p}\rho(T_0)\dot{v}(T_0)}$}, i<={$ $}] (18.center) to (19.center);
        \draw [style=simple] (18.center) to (22.center);
        \draw [style=simple] (19.center) to (21.center);
        \draw [style={ct_R}, {l_}={$\frac{1}{c_{p}\rho(T_0)\dot{v}(T_0)}$}, i>={$ $}] (22.center) to (21.center);
        \draw [style=simple] (19.center) to (24.center);
        \draw [style=simple] (18.center) to (25.center);
        \draw [style=simple] (0.center) to (25.center);
        \draw [style={ct_R}, {l_}={$\frac{\Delta x}{A k}$}, {*-*}] (6.center) to (26.center);
        \draw [style={ct_R}, {l_}={$\frac{\Delta x}{A k}$}, {*-*}] (26.center) to (27.center);
        \draw [style={ct_R}, {l_}={$\frac{\Delta x}{A k}$}, {*-*}] (27.center) to (28.center);
        \draw [style={ct_R}, {l_}={$\frac{\Delta x}{A k}$}, {*-*}] (28.center) to (29.center);
        \draw [style={ct_R}, {l_}={$\frac{1}{A h_c}$}, {*-o}] (29.center) to (30.center);
        \draw [style=simple] (24.center) to (30.center);
        \draw [style=simple] (2.center) to (36.center);
        \draw [style={ct_R}, {l_}={$\frac{\Delta x}{A k}$}] (36.center) to (37.center);
        \draw [style=simple] (37.center) to (26.center);
    \end{pgfonlayer}
\end{tikzpicture}
