\begin{tikzpicture}
	\begin{pgfonlayer}{nodelayer}
		\node[] (legend) at (12.5, 4) {\includegraphics[width=3cm]{./resources/legend.pdf}};
		\node [style=block, fill={RoyalRed}] (0) at (-1, 0) {\sffamily\textbf{AULA}\\ $ T = T_{sp,a} $\\ $ RH = RH_{sp,a} $\\$ q=? $\\ $ q_c = ? $};
		\node [style=block] (1) at (3, -2) {\sffamily\textbf{GROUND}\\ $ T = T_{gnd} $\\ $ q=? $};
		\node [style=block] (2) at (3, -5) {\sffamily\textbf{CANTEEN}\\ $ T = T_{sp,c} $\\ $ q=? $};
		\node [style=dot] (3) at (-3, -2) {};
		\node [style=none] (4) at (-3, -5) {};
		\node [style=dot] (5) at (-1, -2) {};
		\node [style=dot] (6) at (-2, -2) {};
		\node [style=dot] (7) at (-2, -5) {};
		\node [style=dot] (8) at (-1, -5) {};
		\node [style=none] (9) at (-6, 0) {};
		\node [style=block] (10) at (-6, -2) {\sffamily\textbf{HALL}\\ $ T = T_{sp,h} $\\ $ q=? $};
		\node [style=dot] (11) at (5, 0) {};
		\node [style=dot] (12) at (10, 0) {};
		\node [style=dot] (13) at (10, -1) {};
		\node [style=dot] (14) at (10, -2) {};
		\node [style=none] (15) at (10, -3) {};
		\node [style=block] (16) at (13, -5) {\sffamily\textbf{OUTSIDE}\\ $ T = T_{amb} $\\ $ RH = RH_{amb} $\\  $ q = q_{sun} $};
		\node [style=none] (17) at (5, -3) {};
		\node [style=none] (18) at (9, -3) {};
		\node [style=block, fill=RoyalGrey] (19) at (7, -3) {\sffamily\textbf{CAVITY S}\\ $ T = ? $\\ $ q=? $};
		\node [style=none] (20) at (10, -6) {};
		\node [style=dot] (21) at (10, -5) {};
		\node [style=none] (22) at (7, -6) {};
		\node [style=none] (23) at (5, 3) {};
		\node [style=none] (24) at (9, 3) {};
		\node [style=block, fill=RoyalGrey] (25) at (7, 3) {\sffamily\textbf{CAVITY N}\\ $ T = ? $\\ $ q=? $};
		\node [style=block, fill={RoyalRed!20}, minimum width=3cm] (26) at (4, 4) {\sffamily\textbf{PERSONS}\\ $ q=q(T_{amb},M,gen) $\\ $ \Phi(T_{amb},M,gen) $};
		\node [style=dot] (27) at (10, 4) {};
		\node [style=none] (28) at (13, 0) {};
		\node [style=dot] (29) at (13, -1) {};
		\node [style=dot] (30) at (13, -2) {};
		\node [style=dot] (31) at (13, -3) {};
		\node [style=none] (32) at (10, 5) {};
		\node [style=none] (33) at (-1, 6) {};
		\node [style=block, fill={RoyalRed!40}, minimum width=3cm] (34) at (4, 6) {\sffamily\textbf{SUN N}\\ $ q = q(q_{sun}, \theta, \phi )$};
		\node [style=block, fill={RoyalRed!40}, minimum width=3cm] (35) at (-6, 6) {\sffamily\textbf{SUN W}\\ $ q = q(q_{sun}, \theta, \phi )$};
		\node [style=block, fill={RoyalRed!20}, minimum width=3.5cm] (36) at (-6, 4) {\sffamily\textbf{LIGHTS}\\ $ q=q_{p} $ };
		\node [style=dot] (37) at (-1, 4) {};
		\node [style=block, fill={RoyalRed!20}, minimum width=3cm] (38) at (-6, 2) {\sffamily\textbf{DEVICES}\\ $ q=q_{p} $};
		\node [style=dot] (39) at (-1, 2) {};
		\node [style=dot] (40) at (9, 0) {};
		\node [style=none] (41) at (7, 5) {};
		\node [style=dot] (42) at (7, 4) {};
		\node [style=none] (43) at (-3, 0) {};
		\node [style=dot] (44) at (7, -5) {};
		\node [style=none] (45) at (10, 3) {};
	\end{pgfonlayer}
	\begin{pgfonlayer}{edgelayer}
		\draw [style=simple] (6) to (5);
		\draw [style=simple] (3) to (6);
		\draw [style=simple] (4.center) to (7);
		\draw [style=simple] (7) to (8);
		\draw [style=simple] (8) to (2);
		\draw [style=simple] (13) to (12);
		\draw [style=simple] (14) to (13);
		\draw [style=simple] (15.center) to (14);
		\draw [style=simple] (20.center) to (21);
		\draw [style=simple] (30) to (31);
		\draw [style=simple] (29) to (30);
		\draw [style=simple] (28.center) to (29);
		\draw [style=simple] (32.center) to (27);
		\draw [style=simple] (33) to (37);
		\draw [style={ct_R}, l={$ R_{sun} $}, i={$ $}] (34) to (33.east);
		\draw [style=simple] (0) to (39);
		\draw [style=simple] (37) to (39);
		\draw [style={ct_R}, l={$ R_{sun} $}, i<={$ $}] (33.west) to (35);
		\draw [style={ct_R}, l={$ R_{pers} $}, i={$ $}] (26) to (37);
		\draw [style={ct_L}, l={$ WP $}, i={$mg/s$}] (26) to (0);
		\draw [style={ct_R}, {l_}={$ R_{light}$}, {i_}={$ $}] (36) to (37);
		\draw [style={ct_R}, {l_}={$ R_{dev} $}, {i_}={$ $}] (38) to (39);
		\draw [style={ct_R}, l={$ R_{floor} $}] (5) to (1);
		\draw [style={ct_R}, {l_}={$ R_{w-0,in} $}] (43.center) to (9.center);
		\draw [style={ct_R}, {l_}={$ R_{door-0} $}] (3) to (10.east);
		\draw [style={ct_R}, l={$ R_{w-6,in}$}] (3) to (4.center);
		\draw [style={ct_R}, l={$ R_{door-6} $}] (6) to (7);
		\draw [style={ct_R}, l={$ R_{w-7,in}$}] (5) to (8);
		\draw [style={ct_R}, l={$ R_{w-2,in}$}] (24.center) to (40);
		\draw [style={ct_R}, l={$ R_{w-4,in}$}] (23.center) to (11);
		\draw [style={ct_R}, l={$ R_{w-1,in}$}] (40) to (18.center);
		\draw [style={ct_R}, l={$ R_{w-3,in}$}] (11) to (17.center);
		\draw [style={ct_R}, {l_}={$ R_{w-5,in}$}] (44) to (2);
		\draw [style={ct_R}, l={$ R_{w-3,out}$}] (44) to (21);
		\draw [style={ct_R}, l={$ R_{w-5,out}$}] (22.center) to (20.center);
		\draw [style={ct_R}, l={$ R_{w-0,out}$}] (45) to (12);
		\draw [style={ct_R}, {l_}={$ R_{win-0}$}] (28.center) to (12);
		\draw [style={ct_R}, {l_}={$ R_{w-2,out}$}] (29) to (13);
		\draw [style={ct_R}, {l_}={$ R_{win-2}$}] (30) to (14);
		\draw [style={ct_R}, {l_}={$ R_{roof}$}] (31) to (15.center);
		\draw [style={ct_R}, l={$ R_{w-4,out}$}] (41.center) to (32.center);
		\draw [style={ct_R}, l={$ R_{w-1,out}$}] (42) to (27);
		\draw [style=simple] (22.center) to (19);
		\draw [style=simple] (21) to (16);
		\draw [style=simple] (31) to (16);
		\draw [style=simple] (11) to (40);
		\draw [style=simple] (12) to (40);
		\draw [style=simple] (11) to (0);
		\draw [style=simple] (9.center) to (10);
		\draw [style=simple] (42) to (25);
		\draw [style=simple] (41.center) to (42);
		\draw [style=simple] (23.center) to (25);
		\draw [style=simple] (24.center) to (25);
		\draw [style=simple] (19) to (18.center);
		\draw [style=simple] (19) to (17.center);
		\draw [style=simple] (43.center) to (0);
		\draw [style=simple] (45.center) to (27);
		\draw [style=simple] (5) to (0);
	\end{pgfonlayer}
\end{tikzpicture}
